{
	"info": {
		"_postman_id": "db14868a-24d5-4db3-b715-3ed2b3fcc09b",
		"name": "Seleção",
		"schema": "https://schema.getpostman.com/json/collection/v2.1.0/collection.json"
	},
	"item": [
		{
			"name": "Usuario",
			"item": [
				{
					"name": "/usuarios",
					"request": {
						"method": "POST",
						"header": [
							{
								"key": "Content-Type",
								"name": "Content-Type",
								"value": "application/json",
								"type": "text"
							}
						],
						"body": {
							"mode": "raw",
							"raw": "{\n    \"nome\": \"Glauber Oliveira Nóbrega\",\n    \"email\": \"glauberonobrega@gmail.com\",\n    \"senha\": \"mudar@123\"\n}"
						},
						"url": {
							"raw": "http://localhost:8080/api/usuarios",
							"protocol": "http",
							"host": [
								"localhost"
							],
							"port": "8080",
							"path": [
								"api",
								"usuarios"
							]
						}
					},
					"response": []
				},
				{
					"name": "/usuarios",
					"request": {
						"method": "GET",
						"header": [],
						"body": {
							"mode": "raw",
							"raw": ""
						},
						"url": {
							"raw": "http://localhost:8080/api/usuarios",
							"protocol": "http",
							"host": [
								"localhost"
							],
							"port": "8080",
							"path": [
								"api",
								"usuarios"
							]
						}
					},
					"response": []
				},
				{
					"name": "/usuarios/{email}",
					"request": {
						"method": "GET",
						"header": [],
						"body": {
							"mode": "raw",
							"raw": ""
						},
						"url": {
							"raw": "http://localhost:8080/api/usuarios/glauberonobrega@gmail.com",
							"protocol": "http",
							"host": [
								"localhost"
							],
							"port": "8080",
							"path": [
								"api",
								"usuarios",
								"glauberonobrega@gmail.com"
							]
						}
					},
					"response": []
				},
				{
					"name": "/usuarios/{id}",
					"request": {
						"method": "PUT",
						"header": [
							{
								"key": "Content-Type",
								"name": "Content-Type",
								"value": "application/json",
								"type": "text"
							}
						],
						"body": {
							"mode": "raw",
							"raw": "{\n    \"nome\": \"Glaube Oliveira Nóbrega\",\n    \"email\": \"glaubenobrega@gmail.com\",\n    \"senha\": \"123@mudar\"\n}"
						},
						"url": {
							"raw": "http://localhost:8080/api/usuarios/1",
							"protocol": "http",
							"host": [
								"localhost"
							],
							"port": "8080",
							"path": [
								"api",
								"usuarios",
								"1"
							]
						}
					},
					"response": []
				},
				{
					"name": "/usuarios/{id}",
					"request": {
						"method": "DELETE",
						"header": [],
						"body": {
							"mode": "raw",
							"raw": ""
						},
						"url": {
							"raw": "http://localhost:8080/api/usuarios/1",
							"protocol": "http",
							"host": [
								"localhost"
							],
							"port": "8080",
							"path": [
								"api",
								"usuarios",
								"1"
							]
						}
					},
					"response": []
				}
			]
		},
		{
			"name": "Arquivo",
			"item": [
				{
					"name": "/importar-arquivos",
					"request": {
						"method": "POST",
						"header": [
							{
								"key": "Content-Type",
								"name": "Content-Type",
								"value": "multipart/form-data",
								"type": "text"
							},
							{
								"key": "",
								"value": "",
								"type": "text",
								"disabled": true
							}
						],
						"body": {
							"mode": "formdata",
							"formdata": [
								{
									"key": "",
									"type": "file",
									"src": ""
								}
							]
						},
						"url": {
							"raw": "http://localhost:8080/api/importar-arquivos?file",
							"protocol": "http",
							"host": [
								"localhost"
							],
							"port": "8080",
							"path": [
								"api",
								"importar-arquivos"
							],
							"query": [
								{
									"key": "file",
									"value": ""
								}
							]
						}
					},
					"response": []
				}
			]
		},
		{
			"name": "Historico",
			"item": [
				{
					"name": "/historicos",
					"request": {
						"method": "GET",
						"header": [],
						"body": {
							"mode": "raw",
							"raw": ""
						},
						"url": {
							"raw": "http://localhost:8080/api/historicos",
							"protocol": "http",
							"host": [
								"localhost"
							],
							"port": "8080",
							"path": [
								"api",
								"historicos"
							]
						}
					},
					"response": []
				},
				{
					"name": "/historicos",
					"request": {
						"method": "POST",
						"header": [
							{
								"key": "Content-Type",
								"name": "Content-Type",
								"value": "application/json",
								"type": "text"
							}
						],
						"body": {
							"mode": "raw",
							"raw": "{\n  \"historico\": {\n    \"codigoHistorico\": \"1\",\n    \"codigoProduto\": \"100\",\n    \"dataColeta\": \"2019-04-04\",\n    \"nomeBandeira\": \"IPIRANGA\",\n    \"produto\": \"GASOLINA\",\n    \"tipoOperacao\": \"COMPRA\",\n    \"unidadeMedida\": \"LITRO\",\n    \"valorCompra\": \"1.00\",\n    \"valorVenda\": \"5.00\"\n  },\n  \"revendedor\": {\n    \"codigoRevendedor\": \"1\",\n    \"estado\": \"PARAIBA\",\n    \"nomeMunicipio\": \"JOAO PESSOA\",\n    \"nomeRevendedor\": \"TESTE\",\n    \"regiao\": \"PB\"\n  }\n}"
						},
						"url": {
							"raw": "http://localhost:8080/api/historicos",
							"protocol": "http",
							"host": [
								"localhost"
							],
							"port": "8080",
							"path": [
								"api",
								"historicos"
							]
						}
					},
					"response": []
				},
				{
					"name": "/historicos/historico/{idHistorico}/revendedor/{idRevendedor}",
					"request": {
						"method": "PUT",
						"header": [
							{
								"key": "Content-Type",
								"name": "Content-Type",
								"type": "text",
								"value": "application/json"
							}
						],
						"body": {
							"mode": "raw",
							"raw": "{\n  \"historico\": {\n    \"codigoHistorico\": \"1\",\n    \"codigoProduto\": \"100\",\n    \"dataColeta\": \"2019-04-04\",\n    \"nomeBandeira\": \"IPIRANGA\",\n    \"produto\": \"GASOLINA\",\n    \"tipoOperacao\": \"COMPRA\",\n    \"unidadeMedida\": \"LITRO\",\n    \"valorCompra\": \"10.00\",\n    \"valorVenda\": \"50.00\"\n  },\n  \"revendedor\": {\n    \"codigoRevendedor\": \"1\",\n    \"estado\": \"PARAIBA\",\n    \"nomeMunicipio\": \"JOAO PESSOA\",\n    \"nomeRevendedor\": \"TESTE UPDATE\",\n    \"regiao\": \"PB\"\n  }\n}"
						},
						"url": {
							"raw": "http://localhost:8080/api/historicos/historico/1/revendedor/1",
							"protocol": "http",
							"host": [
								"localhost"
							],
							"port": "8080",
							"path": [
								"api",
								"historicos",
								"historico",
								"1",
								"revendedor",
								"1"
							]
						}
					},
					"response": []
				},
				{
					"name": "/historicos/{id}",
					"request": {
						"method": "DELETE",
						"header": [
							{
								"key": "Content-Type",
								"name": "Content-Type",
								"value": "application/json",
								"type": "text"
							}
						],
						"body": {
							"mode": "raw",
							"raw": ""
						},
						"url": {
							"raw": "http://localhost:8080/api/historicos/1",
							"protocol": "http",
							"host": [
								"localhost"
							],
							"port": "8080",
							"path": [
								"api",
								"historicos",
								"1"
							]
						}
					},
					"response": []
				}
			]
		},
		{
			"name": "Pesquisa",
			"item": [
				{
					"name": "historicos/pesquisa/compra-venda-bandeira/{bandeira}",
					"request": {
						"method": "GET",
						"header": [],
						"body": {
							"mode": "raw",
							"raw": ""
						},
						"url": {
							"raw": "http://localhost:8080/api/historicos/pesquisa/compra-venda-bandeira/IPIRANGA",
							"protocol": "http",
							"host": [
								"localhost"
							],
							"port": "8080",
							"path": [
								"api",
								"historicos",
								"pesquisa",
								"compra-venda-bandeira",
								"IPIRANGA"
							]
						}
					},
					"response": []
				},
				{
					"name": "historicos/pesquisa/compra-venda-municipio/{municipio}",
					"request": {
						"method": "GET",
						"header": [],
						"body": {
							"mode": "raw",
							"raw": ""
						},
						"url": {
							"raw": "http://localhost:8080/api/historicos/pesquisa/compra-venda-municipio/JOAO PESSOA",
							"protocol": "http",
							"host": [
								"localhost"
							],
							"port": "8080",
							"path": [
								"api",
								"historicos",
								"pesquisa",
								"compra-venda-municipio",
								"JOAO PESSOA"
							]
						}
					},
					"response": []
				},
				{
					"name": "historicos/pesquisa/data-coleta",
					"request": {
						"method": "GET",
						"header": [],
						"body": {
							"mode": "raw",
							"raw": ""
						},
						"url": {
							"raw": "http://localhost:8080/api/historicos/pesquisa/data-coleta",
							"protocol": "http",
							"host": [
								"localhost"
							],
							"port": "8080",
							"path": [
								"api",
								"historicos",
								"pesquisa",
								"data-coleta"
							]
						}
					},
					"response": []
				},
				{
					"name": "historicos/pesquisa/distribuidora/{nome}",
					"request": {
						"method": "GET",
						"header": [],
						"body": {
							"mode": "raw",
							"raw": ""
						},
						"url": {
							"raw": "http://localhost:8080/api/historicos/pesquisa/distribuidora/IPIRANGA",
							"protocol": "http",
							"host": [
								"localhost"
							],
							"port": "8080",
							"path": [
								"api",
								"historicos",
								"pesquisa",
								"distribuidora",
								"IPIRANGA"
							]
						}
					},
					"response": []
				},
				{
					"name": "historicos/pesquisa/regiao/{regiao}",
					"request": {
						"method": "GET",
						"header": [],
						"body": {
							"mode": "raw",
							"raw": ""
						},
						"url": {
							"raw": "http://localhost:8080/api/historicos/pesquisa/regiao/PB",
							"protocol": "http",
							"host": [
								"localhost"
							],
							"port": "8080",
							"path": [
								"api",
								"historicos",
								"pesquisa",
								"regiao",
								"PB"
							]
						}
					},
					"response": []
				},
				{
					"name": "historicos/pesquisa/valor-medio-municipio/{municipio}",
					"request": {
						"method": "GET",
						"header": [],
						"body": {
							"mode": "raw",
							"raw": ""
						},
						"url": {
							"raw": "http://localhost:8080/api/historicos/pesquisa/valor-medio-municipio/JOAO PESSOA",
							"protocol": "http",
							"host": [
								"localhost"
							],
							"port": "8080",
							"path": [
								"api",
								"historicos",
								"pesquisa",
								"valor-medio-municipio",
								"JOAO PESSOA"
							]
						}
					},
					"response": []
				}
			]
		}
	]
}